Id,cluster
1,3
10,8
100,4
101,8
102,2
103,9
104,9
105,2
106,1
107,0
108,5
109,2
11,8
110,6
111,8
112,6
113,0
115,6
116,1
117,4
118,1
119,8
12,8
120,2
121,1
122,8
123,2
124,9
125,4
126,5
127,4
128,0
129,8
13,7
130,8
131,4
132,8
133,2
134,8
135,2
136,8
137,9
138,9
139,2
14,5
140,0
141,9
142,8
143,4
144,8
145,0
146,0
147,5
148,2
149,1
15,6
150,1
151,8
152,2
153,8
154,4
155,8
156,8
157,8
158,2
159,8
16,8
160,0
161,2
162,2
163,9
164,0
165,0
166,8
167,3
168,8
169,0
17,8
170,5
171,1
172,8
173,5
174,8
175,0
176,2
177,8
178,7
179,8
18,8
180,0
181,0
182,0
183,0
184,8
185,0
186,9
187,8
188,1
189,9
19,6
190,2
191,5
192,2
193,9
194,0
195,9
196,2
197,9
198,9
199,9
2,3
20,0
200,0
201,0
202,9
203,8
204,9
205,1
206,0
207,8
208,9
209,9
21,8
210,0
211,9
212,0
213,9
214,2
215,0
216,2
217,4
218,4
219,8
22,8
220,8
221,9
222,2
223,5
224,2
225,0
226,1
227,2
228,1
229,8
23,0
230,9
231,0
232,9
233,2
234,8
235,3
236,6
237,8
238,8
239,8
24,2
240,8
241,8
242,8
243,3
244,3
245,8
246,6
247,7
248,2
249,5
25,8
250,1
251,0
252,8
253,8
254,7
255,7
256,9
257,3
258,8
259,4
26,4
260,4
261,8
262,2
263,0
264,9
265,9
266,3
267,8
268,9
269,3
27,8
270,2
271,0
272,8
273,4
274,0
276,8
277,9
279,3
28,8
280,9
281,3
282,5
283,3
284,0
285,0
287,3
288,2
289,0
29,6
290,3
291,8
292,6
293,3
294,2
295,7
296,3
297,6
298,3
299,3
3,8
30,2
300,3
301,6
302,3
303,3
304,3
305,3
306,3
307,2
308,3
309,3
31,8
310,2
311,0
312,0
313,9
314,0
315,0
316,3
317,0
318,9
319,0
32,3
320,5
321,9
322,9
323,9
324,3
325,0
326,9
327,1
328,1
329,9
33,3
330,8
331,4
332,0
333,2
334,1
335,1
336,9
337,9
338,8
339,9
34,3
340,0
341,0
342,5
343,6
344,9
345,9
346,0
347,0
348,2
349,8
35,1
350,9
351,9
352,9
353,4
354,0
355,2
356,4
357,0
358,9
359,4
36,5
360,9
361,2
362,0
363,9
364,5
365,0
366,8
367,8
368,9
369,8
37,7
370,4
371,1
372,4
373,9
374,8
375,4
376,3
377,6
378,9
379,0
38,4
380,1
381,8
382,9
383,1
384,0
385,5
386,8
387,8
388,9
389,8
39,4
390,8
391,9
392,3
393,8
394,0
396,4
397,9
398,8
399,0
4,8
40,8
400,2
401,2
402,8
403,0
404,0
405,6
406,6
407,6
408,3
409,3
41,5
410,6
411,8
412,6
413,6
414,6
415,3
416,3
417,7
418,7
419,7
42,8
420,7
421,9
422,3
423,6
424,6
425,7
426,6
427,9
428,3
429,6
43,8
430,3
431,3
432,7
433,9
434,7
435,2
436,3
437,7
438,6
439,7
44,0
440,7
441,7
442,6
443,6
444,6
445,3
446,6
447,3
448,6
449,5
45,8
450,6
451,7
452,7
453,9
454,7
455,6
456,3
457,7
458,0
459,6
46,4
460,6
461,6
462,2
463,9
464,7
465,5
466,3
467,0
468,1
469,5
47,8
470,9
471,0
472,9
473,4
474,1
475,1
476,0
477,4
478,1
479,4
48,8
480,9
481,1
482,1
483,9
484,1
485,1
486,6
487,5
488,9
489,9
49,6
490,9
491,0
492,1
493,9
494,0
495,2
496,9
497,2
498,0
499,4
5,8
50,9
500,1
501,0
502,9
503,1
504,9
505,9
506,9
507,1
508,0
509,6
51,0
510,1
511,2
512,9
513,0
514,1
516,1
517,2
518,9
519,2
52,8
520,9
521,1
522,1
523,9
524,1
525,2
526,1
527,9
528,1
529,2
53,2
530,1
531,1
532,9
533,1
534,4
535,2
536,9
537,1
538,2
539,1
54,8
540,4
541,4
542,1
543,2
544,1
545,2
546,0
547,1
548,9
549,9
55,8
550,1
551,9
552,9
553,5
554,4
555,9
556,5
557,4
558,6
559,4
56,1
560,9
561,5
562,2
563,2
564,1
565,4
566,6
567,9
568,7
569,6
57,1
570,3
571,6
572,7
573,7
574,7
575,7
576,7
577,3
578,7
579,7
58,8
580,3
581,3
582,7
583,3
584,3
585,9
586,9
587,3
588,3
589,8
59,8
590,7
591,3
592,3
593,0
594,6
595,7
596,7
597,9
599,3
6,1
60,8
600,7
601,7
602,6
603,6
604,3
605,7
606,7
607,7
608,2
609,7
61,1
610,7
611,6
612,6
613,3
614,3
615,6
616,7
617,7
618,7
619,6
62,8
620,7
621,8
622,0
623,8
624,7
625,8
626,8
627,5
628,2
629,2
63,8
630,8
631,8
632,1
633,8
635,4
636,8
637,4
638,0
639,8
64,6
640,2
641,0
642,6
643,1
644,9
645,8
646,2
647,7
648,3
649,3
65,2
650,2
651,8
652,8
653,8
654,8
655,8
656,9
657,8
658,9
659,9
66,1
660,8
661,5
662,7
663,2
664,2
665,0
666,9
667,0
668,2
669,2
67,1
670,1
671,2
672,9
673,5
675,1
676,9
677,7
678,3
679,7
68,7
680,6
681,3
682,6
683,7
684,7
685,7
686,7
687,7
688,7
689,2
69,8
690,7
691,6
692,3
693,0
694,6
695,9
696,3
697,8
698,7
699,7
7,8
70,8
700,3
701,3
702,7
703,6
704,3
705,3
706,9
707,3
708,6
709,7
71,1
710,6
711,3
712,6
713,9
714,3
715,6
716,3
717,7
718,7
719,6
72,1
720,7
721,7
722,3
723,7
724,7
725,6
726,9
727,9
73,8
74,2
75,8
76,5
77,1
78,8
79,1
8,8
80,1
81,9
82,5
83,1
84,1
85,8
86,8
87,4
88,2
89,1
9,8
90,5
91,9
92,8
93,0
94,1
95,4
96,9
97,8
98,1
99,6
